/home/ida/sources/TUBS_IDA_YSZHONG_OSPFnSDN/adsal_L2_forwarding/src/main/java/org/opendaylight/tutorial/tutorial_L2_forwarding/bean/ospf/OSPFLinkStateAcknowledgment.java
/home/ida/sources/TUBS_IDA_YSZHONG_OSPFnSDN/adsal_L2_forwarding/src/main/java/org/opendaylight/tutorial/tutorial_L2_forwarding/bean/ospf/OSPFHeader.java
/home/ida/sources/TUBS_IDA_YSZHONG_OSPFnSDN/adsal_L2_forwarding/src/main/java/org/opendaylight/tutorial/tutorial_L2_forwarding/bean/ospf/lsa/OSPFLSAHeader.java
/home/ida/sources/TUBS_IDA_YSZHONG_OSPFnSDN/adsal_L2_forwarding/src/main/java/org/opendaylight/tutorial/tutorial_L2_forwarding/util/IPAddressUtil.java
/home/ida/sources/TUBS_IDA_YSZHONG_OSPFnSDN/adsal_L2_forwarding/src/main/java/org/opendaylight/tutorial/tutorial_L2_forwarding/util/RawDumper.java
/home/ida/sources/TUBS_IDA_YSZHONG_OSPFnSDN/adsal_L2_forwarding/src/main/java/org/opendaylight/tutorial/tutorial_L2_forwarding/bean/ospf/OSPF.java
/home/ida/sources/TUBS_IDA_YSZHONG_OSPFnSDN/adsal_L2_forwarding/src/main/java/org/opendaylight/tutorial/tutorial_L2_forwarding/util/IDASender.java
/home/ida/sources/TUBS_IDA_YSZHONG_OSPFnSDN/adsal_L2_forwarding/src/main/java/org/opendaylight/tutorial/tutorial_L2_forwarding/internal/Activator.java
/home/ida/sources/TUBS_IDA_YSZHONG_OSPFnSDN/adsal_L2_forwarding/src/main/java/org/opendaylight/tutorial/tutorial_L2_forwarding/util/DataPacketHelper.java
/home/ida/sources/TUBS_IDA_YSZHONG_OSPFnSDN/adsal_L2_forwarding/src/main/java/org/opendaylight/tutorial/tutorial_L2_forwarding/util/DataPacketAssembler.java
/home/ida/sources/TUBS_IDA_YSZHONG_OSPFnSDN/adsal_L2_forwarding/src/main/java/org/opendaylight/tutorial/tutorial_L2_forwarding/util/InternetChecksum.java
/home/ida/sources/TUBS_IDA_YSZHONG_OSPFnSDN/adsal_L2_forwarding/src/main/java/org/opendaylight/tutorial/tutorial_L2_forwarding/bean/ospf/OSPFLinkStateRequest.java
/home/ida/sources/TUBS_IDA_YSZHONG_OSPFnSDN/adsal_L2_forwarding/src/main/java/org/opendaylight/tutorial/tutorial_L2_forwarding/util/IDAOSPFCommunicator.java
/home/ida/sources/TUBS_IDA_YSZHONG_OSPFnSDN/adsal_L2_forwarding/src/main/java/org/opendaylight/tutorial/tutorial_L2_forwarding/bean/ospf/OSPFRouterLink.java
/home/ida/sources/TUBS_IDA_YSZHONG_OSPFnSDN/adsal_L2_forwarding/src/main/java/org/opendaylight/tutorial/tutorial_L2_forwarding/bean/ospf/lsa/OSPFLSATOS.java
/home/ida/sources/TUBS_IDA_YSZHONG_OSPFnSDN/adsal_L2_forwarding/src/main/java/org/opendaylight/tutorial/tutorial_L2_forwarding/bean/ospf/lsa/OSPFLSARouter.java
/home/ida/sources/TUBS_IDA_YSZHONG_OSPFnSDN/adsal_L2_forwarding/src/main/java/org/opendaylight/tutorial/tutorial_L2_forwarding/util/OSPFLogger.java
/home/ida/sources/TUBS_IDA_YSZHONG_OSPFnSDN/adsal_L2_forwarding/src/main/java/org/opendaylight/tutorial/tutorial_L2_forwarding/bean/ospf/RouterLinkType.java
/home/ida/sources/TUBS_IDA_YSZHONG_OSPFnSDN/adsal_L2_forwarding/src/main/java/org/opendaylight/tutorial/tutorial_L2_forwarding/bean/ospf/lsa/OSPFLSANetwork.java
/home/ida/sources/TUBS_IDA_YSZHONG_OSPFnSDN/adsal_L2_forwarding/src/main/java/org/opendaylight/tutorial/tutorial_L2_forwarding/bean/ospf/OSPFLinkStateUpdate.java
/home/ida/sources/TUBS_IDA_YSZHONG_OSPFnSDN/adsal_L2_forwarding/src/main/java/org/opendaylight/tutorial/tutorial_L2_forwarding/bean/ospf/OSPFHello.java
/home/ida/sources/TUBS_IDA_YSZHONG_OSPFnSDN/adsal_L2_forwarding/src/main/java/org/opendaylight/tutorial/tutorial_L2_forwarding/bean/OpenFlowSwitch2OSPFRouter.java
/home/ida/sources/TUBS_IDA_YSZHONG_OSPFnSDN/adsal_L2_forwarding/src/main/java/org/opendaylight/tutorial/tutorial_L2_forwarding/bean/ospf/OSPFType.java
/home/ida/sources/TUBS_IDA_YSZHONG_OSPFnSDN/adsal_L2_forwarding/src/main/java/org/opendaylight/tutorial/tutorial_L2_forwarding/bean/factory/OSPFPacketFactory.java
/home/ida/sources/TUBS_IDA_YSZHONG_OSPFnSDN/adsal_L2_forwarding/src/main/java/org/opendaylight/tutorial/tutorial_L2_forwarding/bean/ospf/lsa/LSType.java
/home/ida/sources/TUBS_IDA_YSZHONG_OSPFnSDN/adsal_L2_forwarding/src/main/java/org/opendaylight/tutorial/tutorial_L2_forwarding/bean/ospf/lsa/OSPFLSA.java
/home/ida/sources/TUBS_IDA_YSZHONG_OSPFnSDN/adsal_L2_forwarding/src/main/java/org/opendaylight/tutorial/tutorial_L2_forwarding/bean/ospf/lsa/OSPFLSASummary.java
/home/ida/sources/TUBS_IDA_YSZHONG_OSPFnSDN/adsal_L2_forwarding/src/main/java/org/opendaylight/tutorial/tutorial_L2_forwarding/internal/HybridSDNOSPF.java
/home/ida/sources/TUBS_IDA_YSZHONG_OSPFnSDN/adsal_L2_forwarding/src/main/java/org/opendaylight/tutorial/tutorial_L2_forwarding/bean/ospf/lsa/OSPFLSAASExternal.java
/home/ida/sources/TUBS_IDA_YSZHONG_OSPFnSDN/adsal_L2_forwarding/src/main/java/org/opendaylight/tutorial/tutorial_L2_forwarding/bean/ospf/OSPFDatabaseDescription.java
/home/ida/sources/TUBS_IDA_YSZHONG_OSPFnSDN/adsal_L2_forwarding/src/main/java/org/opendaylight/tutorial/tutorial_L2_forwarding/bean/ospf/OSPFLLSDB.java
